/*************************BackEnd******************************************
1-Crear bd en mysql a partir del script dado
2-Nombre recomendado para la db: interprete_db
3-Configurar en backend/app/lib/database.php la configuración de su base de datos

--La configuración por defecto del archivo es:

	public static $dbName = 'interprete_db';
	public static $dbHost = 'localhost';
	public static $dbUser = 'root';
	public static $dbUserPass = '';



/*************************FrontEnd******************************************
Modificar el script ubicado en:
	frontend/js/funciones/basico.js

cambiar la primera línea, modificando window.urlBase 
por la url del servidor donde se econtrará el backend:

window.urlBase = 'http://localhost/tesis/backend/public/';
(línea por defecto)


/*****************************Usuarios por defecto***********************************
alias: lochoa 
pass: lochoa

alias: arturobernal
pass: Arturo1234.
 